{
    "groups": [
    "admin"
    ] ,
    "id":  "fbbc817b-59b6-4cca-a739-e5f819afa786" ,
    "media": [
    {
    "audio": [
    {
    "jeba": [
    "fire.mkv" ,
    {
    "pippeli": [
    "jehu0001-0025.mkv"
    ]
    }
    ]
    }
    ]
    } ,
    {
    "pau": [ ]
    } ,
    {
    "pictures": [
    "2019-02-12-223905_959x863_scrot.png" ,
    "2019-02-13-044028_1920x1080_scrot.png" ,
    "2019-02-16-221407_992x768_scrot.png" ,
    "2019-02-16-221808_992x768_scrot.png" ,
    "2019-02-16-221920_992x768_scrot.png" ,
    "2019-02-16-222218_992x768_scrot.png"
    ]
    } ,
    {
    "videos": [
    {
    "hash": [
    "boy-named-wasted.mp4"
    ]
    } ,
    {
    "nolls": [ ]
    }
    ]
    }
    ] ,
    "name":  "test-user" ,
    "password":  "my-password" ,
    "published": [
    {
    "audio": [
    {
    "jeba": [
    "fw.mkv"
    ]
    }
    ]
    }
    ] ,
    "unpublished": [
    {
    "hash": [ ]
    }
    ]
    } {
    "groups": [
    "admin"
    ] ,
    "id":  "167b68ac-5dc7-4404-9589-6c6c0d5eb99c" ,
    "media": [
    {
    "images": [ ]
    } ,
    {
    "kuvia": [
    {
    "tammikuu": [
    "2019-02-12-223905_959x863_scrot.png" ,
    "2019-02-13-044028_1920x1080_scrot.png" ,
    "2019-02-16-221407_992x768_scrot.png" ,
    "2019-02-16-221808_992x768_scrot.png" ,
    "2019-02-16-221920_992x768_scrot.png" ,
    "2019-02-16-222218_992x768_scrot.png"
    ]
    }
    ]
    }
    ] ,
    "name":  "esa" ,
    "password":  "pallo"
    }